cbsodataR, all data of Statistics Netherlands (CBS)
…
Table of Contents

A list of tables can be retrieved using the
cbs_get_datasets (cbs_get_toc) function.

library(dplyr) # not needed, but used in examples below
library(cbsodataR)

datasets <- cbs_get_datasets() 

datasets |> 
  filter(Language == "en") |> # only English tables
  select(Identifier, ShortTitle) 

## # A tibble: 1,005 × 2
##    Identifier ShortTitle                             
##    <chr>      <chr>                                  
##  1 80783eng   Agriculture; general farm type, region 
##  2 80784eng   Agriculture; labour force, region      
##  3 85636ENG   Arable crops; production               
##  4 37738ENG   Vegetables; yield per kind of vegetable
##  5 83981ENG   Livestock manure; key figures          
##  6 84952ENG   Livestock                              
##  7 7425eng    Milk supply and dairy production       
##  8 84312ENG   Caribbean NL; students MBO             
##  9 84732ENG   Caribbean NL; pupils and students      
## 10 81154eng   Caribbean NL; electricity and water    
## # ℹ 995 more rows
…
